^D:\КУРСЫ ПО ПРОГРАММИРОВАНИЮ\CONSOLEAPPLICATION1\CONSOLEAPPLICATION1\DEBUG\CONSOLEAPPLICATION1.OBJ|D:\КУРСЫ ПО ПРОГРАММИРОВАНИЮ\CONSOLEAPPLICATION1\CONSOLEAPPLICATION1\DEBUG\STDAFX.OBJ
D:\курсы по программированию\CONSOLEAPPLICATION4\DEBUG\CONSOLEAPPLICATION1.EXE
D:\курсы по программированию\CONSOLEAPPLICATION4\DEBUG\CONSOLEAPPLICATION1.ILK
D:\КУРСЫ ПО ПРОГРАММИРОВАНИЮ\CONSOLEAPPLICATION4\DEBUG\CONSOLEAPPLICATION1.PDB
