^D:\курсы по программированию\ConsoleApplication1\ConsoleApplication1\ConsoleApplication1.vcxproj
D:\курсы по программированию\ConsoleApplication1\Release\ConsoleApplication1.ipdb
D:\курсы по программированию\ConsoleApplication1\Release\ConsoleApplication1.iobj
